{
    "name": "Pixeye.Actors",
    "references": [
        "GUID:02aaef2fd456b90478583a2d6377c3b7"
    ],
    "includePlatforms": [],
    "excludePlatforms": [],
    "allowUnsafeCode": true,
    "overrideReferences": false,
    "precompiledReferences": [],
    "autoReferenced": true,
    "defineConstraints": [],
    "versionDefines": []
}