%YAML 1.1
%TAG !u! tag:unity3d.com,2011:
--- !u!687078895 &4343727234628468602
SpriteAtlas:
  m_ObjectHideFlags: 0
  m_CorrespondingSourceObject: {fileID: 0}
  m_PrefabInstance: {fileID: 0}
  m_PrefabAsset: {fileID: 0}
  m_Name: Atlas_UI_RGB+1A
  m_EditorData:
    serializedVersion: 2
    textureSettings:
      serializedVersion: 2
      anisoLevel: 1
      compressionQuality: 50
      maxTextureSize: 2048
      textureCompression: 0
      filterMode: 1
      generateMipMaps: 0
      readable: 0
      crunchedCompression: 0
      sRGB: 1
    platformSettings:
    - serializedVersion: 3
      m_BuildTarget: Android
      m_MaxTextureSize: 2048
      m_ResizeAlgorithm: 0
      m_TextureFormat: 46
      m_TextureCompression: 1
      m_CompressionQuality: 50
      m_CrunchedCompression: 0
      m_AllowsAlphaSplitting: 0
      m_Overridden: 1
      m_AndroidETC2FallbackOverride: 0
      m_ForceMaximumCompressionQuality_BC6H_BC7: 0
    packingSettings:
      serializedVersion: 2
      padding: 4
      blockOffset: 1
      allowAlphaSplitting: 0
      enableRotation: 0
      enableTightPacking: 1
    variantMultiplier: 1
    packables:
    - {fileID: 102900000, guid: 92508a744051205448a185df38ed5803, type: 3}
    - {fileID: 102900000, guid: f1d55fd5ff5c72042927369047c600fc, type: 3}
    - {fileID: 102900000, guid: 9a9ba618a606f6745997780ac7fedbda, type: 3}
    - {fileID: 102900000, guid: 266b5decfc41cff4097be2db8c5d467c, type: 3}
    - {fileID: 102900000, guid: 3f5bbf690a10a444b8252b41ef850d94, type: 3}
    - {fileID: 102900000, guid: ef43ac15ed4c83e4eba58a559fb9c487, type: 3}
    totalSpriteSurfaceArea: 8337678
    bindAsDefault: 1
    storedHash:
      serializedVersion: 2
      Hash: 55126276df673973c89c791d2f082e97
  m_MasterAtlas: {fileID: 0}
  m_PackedSprites:
  - {fileID: 21300000, guid: 059e0200b58f439459fd2ce08a794e91, type: 3}
  - {fileID: 21300000, guid: 6d3666605cd21104fa84a1a601df5597, type: 3}
  - {fileID: 21300000, guid: df1945708fc4d6742b37268ae519a4b1, type: 3}
  - {fileID: 21300000, guid: c8c8c670367bf7e489243b843eeef521, type: 3}
  - {fileID: 21300000, guid: 47e51aa03c8cd16448f9cba068b87887, type: 3}
  - {fileID: 21300000, guid: dd2672b0086878541813559197ae0102, type: 3}
  - {fileID: 21300000, guid: d86414d0f9dab17468a82adb2de3b623, type: 3}
  - {fileID: 21300000, guid: 6b7f50f0c25eead429284cd00c8c43fd, type: 3}
  - {fileID: 21300000, guid: bb4c08313ab8d094099ba3912307d052, type: 3}
  - {fileID: 21300000, guid: 0c52b44113e098941bd61a55af4745b1, type: 3}
  - {fileID: 21300000, guid: f8fceb41b68ef0a4ea35add24f4635e0, type: 3}
  - {fileID: 21300000, guid: db87746129cc599478e1ae8cecedefd7, type: 3}
  - {fileID: 21300000, guid: 8ccb319105a8fab4bae3e8c8ceb94369, type: 3}
  - {fileID: 21300000, guid: b7d245916891cca47a0144e12a82e086, type: 3}
  - {fileID: 21300000, guid: 59dceeb1278244b429441fc1a4d16dc7, type: 3}
  - {fileID: 21300000, guid: ea9306e1aa95eb8439400efefff9f8db, type: 3}
  - {fileID: 21300000, guid: 6217b7e11307ad64884406331d3ca2ce, type: 3}
  - {fileID: 21300000, guid: e275e9f15c58d384f9346765f69e49d1, type: 3}
  - {fileID: 21300000, guid: 65a9410232dbc154c9cec96a5fbd07b1, type: 3}
  - {fileID: 21300000, guid: a5b93d32762c76c4ab4818b49c2f74dc, type: 3}
  - {fileID: 21300000, guid: 9aa2c942e55346b48883bf78aba327ca, type: 3}
  - {fileID: 21300000, guid: dfecc0923b6ad9e4bb1187809ad62dad, type: 3}
  - {fileID: 21300000, guid: 479eafb2543431043a8ee390637ac0f7, type: 3}
  - {fileID: 21300000, guid: 108f3f0394e16fc4c8e7ee1db9e95935, type: 3}
  - {fileID: 21300000, guid: 1b4ab323c3684824c8c12d284b4688de, type: 3}
  - {fileID: 21300000, guid: 45d8334376e3ebc42b7f1c93a0794240, type: 3}
  - {fileID: 21300000, guid: 91b7e74335f44c44c8dba8435bf6c3ab, type: 3}
  - {fileID: 21300000, guid: 5b0afe43a1982124fb85c8003a2dea2b, type: 3}
  - {fileID: 21300000, guid: 8a38e0c362c83a047983d02b417b0980, type: 3}
  - {fileID: 21300000, guid: 70c500e3f9a702743946d084c36b42c6, type: 3}
  - {fileID: 21300000, guid: 50a947e39c924a34190e2127f6d76ebb, type: 3}
  - {fileID: 21300000, guid: 28a60fe33df63c644be23b260b95b731, type: 3}
  - {fileID: 21300000, guid: 619da714ddc4f354f804d6102a268fdf, type: 3}
  - {fileID: 21300000, guid: b75aa2349cb309240afa0694dffe6027, type: 3}
  - {fileID: 21300000, guid: cb93653465f6bc64f938a8231850ae83, type: 3}
  - {fileID: 21300000, guid: 55d319343d6d686429960c7dce53140d, type: 3}
  - {fileID: 21300000, guid: 4e919d44466f0624191cd947ff906d2a, type: 3}
  - {fileID: 21300000, guid: 47c96e5414c2b4449920b448538df93a, type: 3}
  - {fileID: 21300000, guid: 6d20ba642c3809649a3ffc929fc3bbc1, type: 3}
  - {fileID: 21300000, guid: 7066e0747291df44fa5c2bf93bee3a6e, type: 3}
  - {fileID: 21300000, guid: 5c4776b41296bde47b4e2daec3625848, type: 3}
  - {fileID: 21300000, guid: a10be1c4d44d5e447bf2917dbeb8f2b8, type: 3}
  - {fileID: 21300000, guid: d978eb0536f3b6046a6428f028d5a943, type: 3}
  - {fileID: 21300000, guid: 4527bf35c3959cf4b8ab578a90dcd02b, type: 3}
  - {fileID: 21300000, guid: 9ed20a5564e5d694cbf9322747030227, type: 3}
  - {fileID: 21300000, guid: 02e21a7595645644e80f34c809e010e9, type: 3}
  - {fileID: 21300000, guid: b634c8a51d4a2d440b44719a9c1329ba, type: 3}
  - {fileID: 21300000, guid: 33ba85d5fc7cbab4a9dcd8dc35e31542, type: 3}
  - {fileID: 21300000, guid: 9a6560e5bacb40847bb1b879ede354fb, type: 3}
  - {fileID: 21300000, guid: 8f1b4006f3941294e81fed9dd5e35685, type: 3}
  - {fileID: 21300000, guid: f42791169da3c0149ad7d455c24026ef, type: 3}
  - {fileID: 21300000, guid: a3464046b5f29474b891e5a6b0602b66, type: 3}
  - {fileID: 21300000, guid: 27bdb876939215f41bd72bd2f5ad21f4, type: 3}
  - {fileID: 21300000, guid: cea4a58609fcc6841b901c428ed158ee, type: 3}
  - {fileID: 21300000, guid: 92a4fb96206097047a300ebace4278a1, type: 3}
  - {fileID: 21300000, guid: 8dd861a6e819de241bca68a36048a6bd, type: 3}
  - {fileID: 21300000, guid: efee20b64d1e73942a29ba61ce3379c3, type: 3}
  - {fileID: 21300000, guid: c6a995b6b3cc2664fbddcfcb3a83293b, type: 3}
  - {fileID: 21300000, guid: d0ea2ec653dd331458a02626c7a02955, type: 3}
  - {fileID: 21300000, guid: 33cddcd61e69144449b696d94a079e64, type: 3}
  - {fileID: 21300000, guid: a454050719005b444b59a84eaafba779, type: 3}
  - {fileID: 21300000, guid: 05ae5b27f62190b4da657741df56fafd, type: 3}
  - {fileID: 21300000, guid: 03435f376320d0e418058b601acc79fd, type: 3}
  - {fileID: 21300000, guid: 2927e1d7d646af8459f2898fc4fce62b, type: 3}
  - {fileID: 21300000, guid: 26d2e70834704ab4caaa1bcabebb3873, type: 3}
  - {fileID: 21300000, guid: ea4a9c4889157964ea64778839d97680, type: 3}
  - {fileID: 21300000, guid: 054411784c3fdf74d9db120b4a792a71, type: 3}
  - {fileID: 21300000, guid: f26fa8880b3aeef4b8516c82dc12f2a5, type: 3}
  - {fileID: 21300000, guid: 299599986b195ec44ba0d4bf6f4d4804, type: 3}
  - {fileID: 21300000, guid: 58d0bdc848524e54284c9e7725053d7c, type: 3}
  - {fileID: 21300000, guid: f07e17d8dc5732646b3ec49fce870411, type: 3}
  - {fileID: 21300000, guid: 6b213c5905ab86247bec56e1134be3ed, type: 3}
  - {fileID: 21300000, guid: 3e6700891a58cc44392dd1f1f841b3da, type: 3}
  - {fileID: 21300000, guid: ae7e1099aaff73c4b8e6e623e8c96910, type: 3}
  - {fileID: 21300000, guid: 53f0a099e5669d345a3f0b7f41c2f8c7, type: 3}
  - {fileID: 21300000, guid: 81c655d952ad6ca498cc4b1491740ee0, type: 3}
  - {fileID: 21300000, guid: c6c531e9c23db0e40b2eba0a8f947629, type: 3}
  - {fileID: 21300000, guid: d6a1673a31851fd4395c287261da36e4, type: 3}
  - {fileID: 21300000, guid: 8925c87a7beb94c4bb8da70f92affebc, type: 3}
  - {fileID: 21300000, guid: 78ee397acef927a439f9c6db499a7d33, type: 3}
  - {fileID: 21300000, guid: 7dd246bae015387458c848fe85a44fa9, type: 3}
  - {fileID: 21300000, guid: 4d6a99baee23b654f9e4bb672ae0b438, type: 3}
  - {fileID: 21300000, guid: 391f97da05cf45240a8ecdec752cd9be, type: 3}
  - {fileID: 21300000, guid: bebdcb1b1d4112d49bb5e505c72918c6, type: 3}
  - {fileID: 21300000, guid: 81db573bae342c546ad4eb703ead30a5, type: 3}
  - {fileID: 21300000, guid: 1bcfbc6b95a2af94aa21aeb5a22ad9f7, type: 3}
  - {fileID: 21300000, guid: 0d17ab7bbdf3dc544b7e132df546fa81, type: 3}
  - {fileID: 21300000, guid: 43a7d98bd4222b64e933596512dc09ad, type: 3}
  - {fileID: 21300000, guid: 047b929beb10565479851d39b452dfb6, type: 3}
  - {fileID: 21300000, guid: 0b3d25bb30efc5847954849ba0b1453d, type: 3}
  - {fileID: 21300000, guid: 0289efeb9feff2947b266fed980218d0, type: 3}
  - {fileID: 21300000, guid: 6d49331c7dc06794f98d4a1c17790d0b, type: 3}
  - {fileID: 21300000, guid: 19c4df2c9c38ace4fbf0731a1dbe0527, type: 3}
  - {fileID: 21300000, guid: e9d4143c19529834981ac6821a04aecd, type: 3}
  - {fileID: 21300000, guid: d625705c2b10393418fa45b27c7370b0, type: 3}
  - {fileID: 21300000, guid: 11068e6cb0f18044e93ad0154715d958, type: 3}
  - {fileID: 21300000, guid: b791d37cdec063e4abd56e980fc82f77, type: 3}
  - {fileID: 21300000, guid: 81f594ac68469784784aa5e0c5f111a9, type: 3}
  - {fileID: 21300000, guid: cf1462bc694c3c249831ad8ac5293aa2, type: 3}
  - {fileID: 21300000, guid: a938c2dc75e47c7469ce644250a6c8fa, type: 3}
  - {fileID: 21300000, guid: cd1393fcd2c4c5944bd8cd7ab256cf2e, type: 3}
  - {fileID: 21300000, guid: 405f359d0ed349e439b3e500b5f55c8a, type: 3}
  - {fileID: 21300000, guid: a1bad59df67816b4e87ffbadf3753955, type: 3}
  - {fileID: 21300000, guid: 2be7b70e984b51444aca9c12ae4723a7, type: 3}
  - {fileID: 21300000, guid: 2a1c781e35926804da1a57d450ea2c86, type: 3}
  - {fileID: 21300000, guid: 7788578edcc370145ae5156b7d9370f9, type: 3}
  - {fileID: 21300000, guid: e9b36b9e47f1f49468dc8b9c2a18927d, type: 3}
  - {fileID: 21300000, guid: fb2797aeae325e14abeff8973023ab45, type: 3}
  - {fileID: 21300000, guid: 3730e1eedfffd2948bb740e30373d554, type: 3}
  - {fileID: 21300000, guid: f73f68fe6815f5548a6c2a61b9e49add, type: 3}
  - {fileID: 21300000, guid: 4529ec1f96075cf43abd428185f25409, type: 3}
  - {fileID: 21300000, guid: 11277a3f23988ec47908362d708edaa8, type: 3}
  - {fileID: 21300000, guid: af50dc4fa7b6d314895d0f8c79adb4a5, type: 3}
  - {fileID: 21300000, guid: 45ff5a9f5ffb13c48a6d5b706cdf0e53, type: 3}
  - {fileID: 21300000, guid: c7af4caf86986a24d89b41c984aa68d3, type: 3}
  - {fileID: 21300000, guid: 80bd76bfccc703a4db676af435d54055, type: 3}
  - {fileID: 21300000, guid: c5eceadfabbf8214abff1dad1b45500c, type: 3}
  - {fileID: 21300000, guid: cc7773ef4a2e0cb40859bd61c2c27b1e, type: 3}
  - {fileID: 21300000, guid: ea19e8ef39d89f648a757b47c87f2365, type: 3}
  - {fileID: 21300000, guid: 89f23bff12960d44b9e2ff317502a1eb, type: 3}
  m_PackedSpriteNamesToIndex:
  - gem_4
  - potion_1_empty
  - Login_Box
  - Progress_Slot
  - Minus_Icon
  - Play
  - belt
  - Blue_Ribbon
  - Decoration
  - 11
  - Helmet_Icon
  - bomb
  - Pause
  - Division line
  - gem_2
  - 3
  - Inventory_Box
  - bronze_coin
  - Armor_Icon
  - Progress_Bar
  - Title_Box
  - pills
  - Minus_Icon
  - Plus_Icon
  - gem_1
  - 10
  - Close_Icon
  - Menu_Box
  - 18
  - Inventory_Slot
  - scroll
  - brick
  - 16
  - LoginButton_Pressed
  - 8
  - bandage
  - Nickname_Slot
  - Shield_Icon
  - Quest_Box
  - UI board Large stone
  - 20
  - LoginButton
  - feather
  - Background_Bar
  - gem_3
  - Violet_Ribbon
  - Boots_Icon
  - 9
  - UI board Medium stone
  - stone_tile2
  - Red_Ribbon
  - Comleted_Icon
  - hammer
  - ring
  - Reward_Slot
  - UI board Small  stone
  - TextBTN_Medium
  - machete
  - 4
  - 1
  - UI board Small  parchment
  - 7
  - Eq_Slot
  - Health
  - Button
  - Plus_Icon
  - IRONY TITLE  Large
  - Exclamation_Yellow
  - backpack-1
  - 13
  - Character_Box
  - 12
  - potion_2_empty
  - Crystal_Icon
  - 14
  - Character_Box
  - 6
  - TextBTN_Big_Pressed
  - 2
  - Mana
  - 15
  - IRONY TITLE  empty
  - Accept_Icon
  - Crystal_Icon
  - rope
  - rifle
  - HealthMana_Cover
  - UI board Large  parchment
  - TextBTN_Medium_Pressed
  - Close_Icon
  - pill
  - Comleted_Icon
  - LoginPassword_Box
  - Exclamation_Red
  - sword
  - LoginButton_Hover
  - clover
  - flashlight
  - UI board Medium  parchment
  - 5
  - stone_tile
  - book
  - ButtonShadow
  - TextBTN_Big
  - Coin_Icon
  - Player_Frame
  - backpack-2
  - Stats_Box
  - 17
  - Exclamation_Gray
  - 19
  - Close Button
  - Sword_Icon
  - Coin_Icon
  - Money_Bar
  - potion_2
  - potion_1
  - chemical_light
  - Inventory_Slots
  - ammo
  m_Tag: Atlas_UI_RGB+1A
  m_IsVariant: 0
